202208-presentacion-plataforma.knit
…
```r
library(agrometR)

*get_agro_data(
* 1:4,
* "2022-06-01 01:00:00",
* "2022-08-02 01:00:00"
* )
```
]
 
.panel2-agrometdemo-auto[

```
## # A tibble: 5,956 × 13
##    station…¹ fecha_hora          temp_…² preci…³ humed…⁴ presi…⁵ radia…⁶ veloc…⁷
##        <int> <dttm>                <dbl>   <dbl>   <dbl>   <dbl>   <dbl>   <dbl>
##  1         1 2022-06-01 01:00:00    NA        NA      NA     NA       NA      NA
##  2         1 2022-06-01 02:00:00    NA        NA      NA     NA       NA      NA
##  3         1 2022-06-01 03:00:00    10.5       0      69   1017        0       0
##  4         1 2022-06-01 04:00:00    12         0      67   1016.       0       0
##  5         1 2022-06-01 05:00:00    NA        NA      NA     NA       NA      NA
##  6         1 2022-06-01 06:00:00    13.9       0      60   1017.       0       0
##  7         1 2022-06-01 07:00:00    NA        NA      NA     NA       NA      NA
##  8         1 2022-06-01 08:00:00    NA        NA      NA     NA       NA      NA
##  9         1 2022-06-01 09:00:00    NA        NA      NA     NA       NA      NA
## 10         1 2022-06-01 10:00:00    NA        NA      NA     NA       NA      NA
## # … with 5,946 more rows, 5 more variables: temp_minima <dbl>,
## #   temp_maxima <dbl>, direccion_del_viento <dbl>, grados_dia <dbl>,
## #   horas_frio <dbl>, and abbreviated variable names ¹​station_id,
## #   ²​temp_promedio_aire, ³​precipitacion_horaria, ⁴​humed_rel_promedio,
## #   ⁵​presion_atmosferica, ⁶​radiacion_solar_max, ⁷​veloc_max_viento
## # ℹ Use `print(n = ...)` to see more rows, and `colnames()` to see all variable names
```
…
get_agro_data(
  1:4,
  "2022-06-01 01:00:00",
  "2022-08-02 01:00:00"
  ) |>
* mutate(station_id = factor(station_id))
```
]
 
.panel2-agrometdemo-auto[

```
## # A tibble: 5,956 × 13
##    station…¹ fecha_hora          temp_…² preci…³ humed…⁴ presi…⁵ radia…⁶ veloc…⁷
##    <fct>     <dttm>                <dbl>   <dbl>   <dbl>   <dbl>   <dbl>   <dbl>
##  1 1         2022-06-01 01:00:00    NA        NA      NA     NA       NA      NA
##  2 1         2022-06-01 02:00:00    NA        NA      NA     NA       NA      NA
##  3 1         2022-06-01 03:00:00    10.5       0      69   1017        0       0
##  4 1         2022-06-01 04:00:00    12         0      67   1016.       0       0
##  5 1         2022-06-01 05:00:00    NA        NA      NA     NA       NA      NA
##  6 1         2022-06-01 06:00:00    13.9       0      60   1017.       0       0
##  7 1         2022-06-01 07:00:00    NA        NA      NA     NA       NA      NA
##  8 1         2022-06-01 08:00:00    NA        NA      NA     NA       NA      NA
##  9 1         2022-06-01 09:00:00    NA        NA      NA     NA       NA      NA
## 10 1         2022-06-01 10:00:00    NA        NA      NA     NA       NA      NA
## # … with 5,946 more rows, 5 more variables: temp_minima <dbl>,
## #   temp_maxima <dbl>, direccion_del_viento <dbl>, grados_dia <dbl>,
## #   horas_frio <dbl>, and abbreviated variable names ¹​station_id,
## #   ²​temp_promedio_aire, ³​precipitacion_horaria, ⁴​humed_rel_promedio,
## #   ⁵​presion_atmosferica, ⁶​radiacion_solar_max, ⁷​veloc_max_viento
## # ℹ Use `print(n = ...)` to see more rows, and `colnames()` to see all variable names
```
…
